{
  "configVersion": 2,
  "packages": [
    {
      "name": "_fe_analyzer_shared",
      "rootUri": "file:///C:/Users/Lenovo/AppData/Local/Pub/Cache/hosted/pub.dartlang.org/_fe_analyzer_shared-23.0.0",
      "packageUri": "lib/",
      "languageVersion": "2.12"
    },
    {
      "name": "analyzer",
      "rootUri": "file:///C:/Users/Lenovo/AppData/Local/Pub/Cache/hosted/pub.dartlang.org/analyzer-2.0.0",
      "packageUri": "lib/",
      "languageVersion": "2.12"
    },
    {
      "name": "args",
      "rootUri": "file:///C:/Users/Lenovo/AppData/Local/Pub/Cache/hosted/pub.dartlang.org/args-2.2.0",
      "packageUri": "lib/",
      "languageVersion": "2.12"
    },
    {
      "name": "async",
      "rootUri": "file:///C:/Users/Lenovo/AppData/Local/Pub/Cache/hosted/pub.dartlang.org/async-2.8.2",
      "packageUri": "lib/",
      "languageVersion": "2.12"
    },
    {
      "name": "build",
      "rootUri": "file:///C:/Users/Lenovo/AppData/Local/Pub/Cache/hosted/pub.dartlang.org/build-2.1.0",
      "packageUri": "lib/",
      "languageVersion": "2.12"
    },
    {
      "name": "build_config",
      "rootUri": "file:///C:/Users/Lenovo/AppData/Local/Pub/Cache/hosted/pub.dartlang.org/build_config-1.0.0",
      "packageUri": "lib/",
      "languageVersion": "2.12"
    },
    {
      "name": "build_daemon",
      "rootUri": "file:///C:/Users/Lenovo/AppData/Local/Pub/Cache/hosted/pub.dartlang.org/build_daemon-3.0.0",
      "packageUri": "lib/",
      "languageVersion": "2.12"
    },
    {
      "name": "build_resolvers",
      "rootUri": "file:///C:/Users/Lenovo/AppData/Local/Pub/Cache/hosted/pub.dartlang.org/build_resolvers-2.0.4",
      "packageUri": "lib/",
      "languageVersion": "2.12"
    },
    {
      "name": "build_runner",
      "rootUri": "file:///C:/Users/Lenovo/AppData/Local/Pub/Cache/hosted/pub.dartlang.org/build_runner-2.1.1",
      "packageUri": "lib/",
      "languageVersion": "2.12"
    },
    {
      "name": "build_runner_core",
      "rootUri": "file:///C:/Users/Lenovo/AppData/Local/Pub/Cache/hosted/pub.dartlang.org/build_runner_core-7.1.0",
      "packageUri": "lib/",
      "languageVersion": "2.12"
    },
    {
      "name": "built_collection",
      "rootUri": "file:///C:/Users/Lenovo/AppData/Local/Pub/Cache/hosted/pub.dartlang.org/built_collection-5.1.0",
      "packageUri": "lib/",
      "languageVersion": "2.12"
    },
    {
      "name": "built_value",
      "rootUri": "file:///C:/Users/Lenovo/AppData/Local/Pub/Cache/hosted/pub.dartlang.org/built_value-8.1.2",
      "packageUri": "lib/",
      "languageVersion": "2.12"
    },
    {
      "name": "charcode",
      "rootUri": "file:///C:/Users/Lenovo/AppData/Local/Pub/Cache/hosted/pub.dartlang.org/charcode-1.3.1",
      "packageUri": "lib/",
      "languageVersion": "2.12"
    },
    {
      "name": "checked_yaml",
      "rootUri": "file:///C:/Users/Lenovo/AppData/Local/Pub/Cache/hosted/pub.dartlang.org/checked_yaml-2.0.1",
      "packageUri": "lib/",
      "languageVersion": "2.12"
    },
    {
      "name": "cli_util",
      "rootUri": "file:///C:/Users/Lenovo/AppData/Local/Pub/Cache/hosted/pub.dartlang.org/cli_util-0.3.3",
      "packageUri": "lib/",
      "languageVersion": "2.12"
    },
    {
      "name": "code_builder",
      "rootUri": "file:///C:/Users/Lenovo/AppData/Local/Pub/Cache/hosted/pub.dartlang.org/code_builder-4.1.0",
      "packageUri": "lib/",
      "languageVersion": "2.12"
    },
    {
      "name": "collection",
      "rootUri": "file:///C:/Users/Lenovo/AppData/Local/Pub/Cache/hosted/pub.dartlang.org/collection-1.15.0",
      "packageUri": "lib/",
      "languageVersion": "2.12"
    },
    {
      "name": "convert",
      "rootUri": "file:///C:/Users/Lenovo/AppData/Local/Pub/Cache/hosted/pub.dartlang.org/convert-3.0.1",
      "packageUri": "lib/",
      "languageVersion": "2.12"
    },
    {
      "name": "crypto",
      "rootUri": "file:///C:/Users/Lenovo/AppData/Local/Pub/Cache/hosted/pub.dartlang.org/crypto-3.0.1",
      "packageUri": "lib/",
      "languageVersion": "2.12"
    },
    {
      "name": "dart_style",
      "rootUri": "file:///C:/Users/Lenovo/AppData/Local/Pub/Cache/hosted/pub.dartlang.org/dart_style-2.0.3",
      "packageUri": "lib/",
      "languageVersion": "2.12"
    },
    {
      "name": "file",
      "rootUri": "file:///C:/Users/Lenovo/AppData/Local/Pub/Cache/hosted/pub.dartlang.org/file-6.1.2",
      "packageUri": "lib/",
      "languageVersion": "2.12"
    },
    {
      "name": "fixnum",
      "rootUri": "file:///C:/Users/Lenovo/AppData/Local/Pub/Cache/hosted/pub.dartlang.org/fixnum-1.0.0",
      "packageUri": "lib/",
      "languageVersion": "2.12"
    },
    {
      "name": "freezed",
      "rootUri": "file:///C:/Users/Lenovo/AppData/Local/Pub/Cache/hosted/pub.dartlang.org/freezed-0.14.4",
      "packageUri": "lib/",
      "languageVersion": "2.12"
    },
    {
      "name": "freezed_annotation",
      "rootUri": "file:///C:/Users/Lenovo/AppData/Local/Pub/Cache/hosted/pub.dartlang.org/freezed_annotation-0.14.3",
      "packageUri": "lib/",
      "languageVersion": "2.12"
    },
    {
      "name": "frontend_server_client",
      "rootUri": "file:///C:/Users/Lenovo/AppData/Local/Pub/Cache/hosted/pub.dartlang.org/frontend_server_client-2.1.0",
      "packageUri": "lib/",
      "languageVersion": "2.12"
    },
    {
      "name": "glob",
      "rootUri": "file:///C:/Users/Lenovo/AppData/Local/Pub/Cache/hosted/pub.dartlang.org/glob-2.0.1",
      "packageUri": "lib/",
      "languageVersion": "2.12"
    },
    {
      "name": "graphs",
      "rootUri": "file:///C:/Users/Lenovo/AppData/Local/Pub/Cache/hosted/pub.dartlang.org/graphs-2.0.0",
      "packageUri": "lib/",
      "languageVersion": "2.12"
    },
    {
      "name": "http_multi_server",
      "rootUri": "file:///C:/Users/Lenovo/AppData/Local/Pub/Cache/hosted/pub.dartlang.org/http_multi_server-3.0.1",
      "packageUri": "lib/",
      "languageVersion": "2.12"
    },
    {
      "name": "http_parser",
      "rootUri": "file:///C:/Users/Lenovo/AppData/Local/Pub/Cache/hosted/pub.dartlang.org/http_parser-4.0.0",
      "packageUri": "lib/",
      "languageVersion": "2.12"
    },
    {
      "name": "io",
      "rootUri": "file:///C:/Users/Lenovo/AppData/Local/Pub/Cache/hosted/pub.dartlang.org/io-1.0.3",
      "packageUri": "lib/",
      "languageVersion": "2.12"
    },
    {
      "name": "js",
      "rootUri": "file:///C:/Users/Lenovo/AppData/Local/Pub/Cache/hosted/pub.dartlang.org/js-0.6.3",
      "packageUri": "lib/",
      "languageVersion": "2.12"
    },
    {
      "name": "json_annotation",
      "rootUri": "file:///C:/Users/Lenovo/AppData/Local/Pub/Cache/hosted/pub.dartlang.org/json_annotation-4.1.0",
      "packageUri": "lib/",
      "languageVersion": "2.12"
    },
    {
      "name": "json_serializable",
      "rootUri": "file:///C:/Users/Lenovo/AppData/Local/Pub/Cache/hosted/pub.dartlang.org/json_serializable-5.0.0",
      "packageUri": "lib/",
      "languageVersion": "2.12"
    },
    {
      "name": "logging",
      "rootUri": "file:///C:/Users/Lenovo/AppData/Local/Pub/Cache/hosted/pub.dartlang.org/logging-1.0.1",
      "packageUri": "lib/",
      "languageVersion": "2.12"
    },
    {
      "name": "matcher",
      "rootUri": "file:///C:/Users/Lenovo/AppData/Local/Pub/Cache/hosted/pub.dartlang.org/matcher-0.12.10",
      "packageUri": "lib/",
      "languageVersion": "2.12"
    },
    {
      "name": "meta",
      "rootUri": "file:///C:/Users/Lenovo/AppData/Local/Pub/Cache/hosted/pub.dartlang.org/meta-1.7.0",
      "packageUri": "lib/",
      "languageVersion": "2.12"
    },
    {
      "name": "mime",
      "rootUri": "file:///C:/Users/Lenovo/AppData/Local/Pub/Cache/hosted/pub.dartlang.org/mime-1.0.0",
      "packageUri": "lib/",
      "languageVersion": "2.12"
    },
    {
      "name": "package_config",
      "rootUri": "file:///C:/Users/Lenovo/AppData/Local/Pub/Cache/hosted/pub.dartlang.org/package_config-2.0.0",
      "packageUri": "lib/",
      "languageVersion": "2.12"
    },
    {
      "name": "path",
      "rootUri": "file:///C:/Users/Lenovo/AppData/Local/Pub/Cache/hosted/pub.dartlang.org/path-1.8.0",
      "packageUri": "lib/",
      "languageVersion": "2.12"
    },
    {
      "name": "pedantic",
      "rootUri": "file:///C:/Users/Lenovo/AppData/Local/Pub/Cache/hosted/pub.dartlang.org/pedantic-1.11.1",
      "packageUri": "lib/",
      "languageVersion": "2.12"
    },
    {
      "name": "pool",
      "rootUri": "file:///C:/Users/Lenovo/AppData/Local/Pub/Cache/hosted/pub.dartlang.org/pool-1.5.0",
      "packageUri": "lib/",
      "languageVersion": "2.12"
    },
    {
      "name": "pub_semver",
      "rootUri": "file:///C:/Users/Lenovo/AppData/Local/Pub/Cache/hosted/pub.dartlang.org/pub_semver-2.0.0",
      "packageUri": "lib/",
      "languageVersion": "2.12"
    },
    {
      "name": "pubspec_parse",
      "rootUri": "file:///C:/Users/Lenovo/AppData/Local/Pub/Cache/hosted/pub.dartlang.org/pubspec_parse-1.0.0",
      "packageUri": "lib/",
      "languageVersion": "2.12"
    },
    {
      "name": "shelf",
      "rootUri": "file:///C:/Users/Lenovo/AppData/Local/Pub/Cache/hosted/pub.dartlang.org/shelf-1.2.0",
      "packageUri": "lib/",
      "languageVersion": "2.12"
    },
    {
      "name": "shelf_web_socket",
      "rootUri": "file:///C:/Users/Lenovo/AppData/Local/Pub/Cache/hosted/pub.dartlang.org/shelf_web_socket-1.0.1",
      "packageUri": "lib/",
      "languageVersion": "2.12"
    },
    {
      "name": "source_gen",
      "rootUri": "file:///C:/Users/Lenovo/AppData/Local/Pub/Cache/hosted/pub.dartlang.org/source_gen-1.0.5",
      "packageUri": "lib/",
      "languageVersion": "2.12"
    },
    {
      "name": "source_helper",
      "rootUri": "file:///C:/Users/Lenovo/AppData/Local/Pub/Cache/hosted/pub.dartlang.org/source_helper-1.2.1",
      "packageUri": "lib/",
      "languageVersion": "2.12"
    },
    {
      "name": "source_span",
      "rootUri": "file:///C:/Users/Lenovo/AppData/Local/Pub/Cache/hosted/pub.dartlang.org/source_span-1.8.1",
      "packageUri": "lib/",
      "languageVersion": "2.12"
    },
    {
      "name": "stack_trace",
      "rootUri": "file:///C:/Users/Lenovo/AppData/Local/Pub/Cache/hosted/pub.dartlang.org/stack_trace-1.10.0",
      "packageUri": "lib/",
      "languageVersion": "2.12"
    },
    {
      "name": "stream_channel",
      "rootUri": "file:///C:/Users/Lenovo/AppData/Local/Pub/Cache/hosted/pub.dartlang.org/stream_channel-2.1.0",
      "packageUri": "lib/",
      "languageVersion": "2.12"
    },
    {
      "name": "stream_transform",
      "rootUri": "file:///C:/Users/Lenovo/AppData/Local/Pub/Cache/hosted/pub.dartlang.org/stream_transform-2.0.0",
      "packageUri": "lib/",
      "languageVersion": "2.12"
    },
    {
      "name": "string_scanner",
      "rootUri": "file:///C:/Users/Lenovo/AppData/Local/Pub/Cache/hosted/pub.dartlang.org/string_scanner-1.1.0",
      "packageUri": "lib/",
      "languageVersion": "2.12"
    },
    {
      "name": "term_glyph",
      "rootUri": "file:///C:/Users/Lenovo/AppData/Local/Pub/Cache/hosted/pub.dartlang.org/term_glyph-1.2.0",
      "packageUri": "lib/",
      "languageVersion": "2.12"
    },
    {
      "name": "timing",
      "rootUri": "file:///C:/Users/Lenovo/AppData/Local/Pub/Cache/hosted/pub.dartlang.org/timing-1.0.0",
      "packageUri": "lib/",
      "languageVersion": "2.12"
    },
    {
      "name": "typed_data",
      "rootUri": "file:///C:/Users/Lenovo/AppData/Local/Pub/Cache/hosted/pub.dartlang.org/typed_data-1.3.0",
      "packageUri": "lib/",
      "languageVersion": "2.12"
    },
    {
      "name": "watcher",
      "rootUri": "file:///C:/Users/Lenovo/AppData/Local/Pub/Cache/hosted/pub.dartlang.org/watcher-1.0.0",
      "packageUri": "lib/",
      "languageVersion": "2.12"
    },
    {
      "name": "web_socket_channel",
      "rootUri": "file:///C:/Users/Lenovo/AppData/Local/Pub/Cache/hosted/pub.dartlang.org/web_socket_channel-2.1.0",
      "packageUri": "lib/",
      "languageVersion": "2.12"
    },
    {
      "name": "yaml",
      "rootUri": "file:///C:/Users/Lenovo/AppData/Local/Pub/Cache/hosted/pub.dartlang.org/yaml-3.1.0",
      "packageUri": "lib/",
      "languageVersion": "2.12"
    },
    {
      "name": "s21",
      "rootUri": "../",
      "packageUri": "lib/",
      "languageVersion": "2.12"
    }
  ],
  "generated": "2021-08-11T03:08:17.560618Z",
  "generator": "pub",
  "generatorVersion": "2.13.4"
}
